{
  "project_info": {
    "project_number": "416971752291",
    "project_id": "hs-king-buy",
    "storage_bucket": "hs-king-buy.appspot.com"
  },
  "client": [
    {
      "client_info": {
        "mobilesdk_app_id": "1:416971752291:android:ad722251f05c037ea94956",
        "android_client_info": {
          "package_name": "com.hsmobile.king_buy"
        }
      },
      "oauth_client": [
        {
          "client_id": "416971752291-7p64r0qe3ipede7krd042r45o3natt0f.apps.googleusercontent.com",
          "client_type": 1,
          "android_info": {
            "package_name": "com.hsmobile.king_buy",
            "certificate_hash": "d902e60cfde724216b9241a4e20d8e693d52f7fc"
          }
        },
        {
          "client_id": "416971752291-1nrufv9dtid24tjnakfahkv0rkr6gbvu.apps.googleusercontent.com",
          "client_type": 3
        }
      ],
      "api_key": [
        {
          "current_key": "AIzaSyDiC4PWiGen6VWHPGjaaSz9PjlnL-w2wPY"
        }
      ],
      "services": {
        "appinvite_service": {
          "other_platform_oauth_client": [
            {
              "client_id": "416971752291-1nrufv9dtid24tjnakfahkv0rkr6gbvu.apps.googleusercontent.com",
              "client_type": 3
            }
          ]
        }
      }
    }
  ],
  "configuration_version": "1"
}